{
  "results": [
    "a",
    "aa",
    "aaa",
    "aah",
    "aahed",
    "aahing",
    "aahs",
    "aal",
    "aalii",
    "aaliis",
    "aals",
    "aam",
    "aani",
    "aardvark",
    "aardvarks"
  ],
  "totalDocs": 370100,
  "page": 1,
  "totalPages": 24674,
  "hasNext": true,
  "hasPrev": false
}
